…
## From messy to tidy

<img src=http://i.imgur.com/ybegKuU.png width=750>

## Import

Import all datasets in “data/by-continent” into a single data frame:
`messy`.

``` r
paths <- dir_ls(here("data", "by-continent"))
messy <- vroom(paths)
messy
#> # A tibble: 142 x 38
#>    continent country gdpPercap_1952 gdpPercap_1957 gdpPercap_1962 gdpPercap_1967
#>    <chr>     <chr>            <dbl>          <dbl>          <dbl>          <dbl>
#>  1 Africa    Algeria          2449.          3014.          2551.          3247.
#>  2 Africa    Angola           3521.          3828.          4269.          5523.
#>  3 Africa    Benin            1063.           960.           949.          1036.
#>  4 Africa    Botswa…           851.           918.           984.          1215.
#>  5 Africa    Burkin…           543.           617.           723.           795.
#>  6 Africa    Burundi           339.           380.           355.           413.
#>  7 Africa    Camero…          1173.          1313.          1400.          1508.
#>  8 Africa    Centra…          1071.          1191.          1193.          1136.
#>  9 Africa    Chad             1179.          1308.          1390.          1197.
#> 10 Africa    Comoros          1103.          1211.          1407.          1876.
#> # … with 132 more rows, and 32 more variables: gdpPercap_1972 <dbl>,
#> #   gdpPercap_1977 <dbl>, gdpPercap_1982 <dbl>, gdpPercap_1987 <dbl>,
#> #   gdpPercap_1992 <dbl>, gdpPercap_1997 <dbl>, gdpPercap_2002 <dbl>,
#> #   gdpPercap_2007 <dbl>, lifeExp_1952 <dbl>, lifeExp_1957 <dbl>,
#> #   lifeExp_1962 <dbl>, lifeExp_1967 <dbl>, lifeExp_1972 <dbl>,
#> #   lifeExp_1977 <dbl>, lifeExp_1982 <dbl>, lifeExp_1987 <dbl>,
#> #   lifeExp_1992 <dbl>, lifeExp_1997 <dbl>, lifeExp_2002 <dbl>,
#> #   lifeExp_2007 <dbl>, pop_1952 <dbl>, pop_1957 <dbl>, pop_1962 <dbl>,
#> #   pop_1967 <dbl>, pop_1972 <dbl>, pop_1977 <dbl>, pop_1982 <dbl>,
…
<!-- end list -->

``` r
longer <- messy %>% 
  ____________(where(__________), ________ = "metric")

longer
```

## Tidy with `pivot_longer()`: Result

    #> # A tibble: 5,112 x 4
    #>    continent country metric         value
    #>    <chr>     <chr>   <chr>          <dbl>
    #>  1 Africa    Algeria gdpPercap_1952 2449.
    #>  2 Africa    Algeria gdpPercap_1957 3014.
    #>  3 Africa    Algeria gdpPercap_1962 2551.
    #>  4 Africa    Algeria gdpPercap_1967 3247.
    #>  5 Africa    Algeria gdpPercap_1972 4183.
    #>  6 Africa    Algeria gdpPercap_1977 4910.
    #>  7 Africa    Algeria gdpPercap_1982 5745.
    #>  8 Africa    Algeria gdpPercap_1987 5681.
    #>  9 Africa    Algeria gdpPercap_1992 5023.
    #> 10 Africa    Algeria gdpPercap_1997 4797.
    #> # … with 5,102 more rows
## `separate()`: Task

  - `metric` is still messy; `separate()` `metric` into `c("metric",
    "year")`.

<!-- end list -->

``` r
tidy <- longer %>% ________(______, c("metric", "____"))
tidy
```

## `separate()`: Result

    #> # A tibble: 5,112 x 5
    #>    continent country metric    year  value
    #>    <chr>     <chr>   <chr>     <chr> <dbl>
    #>  1 Africa    Algeria gdpPercap 1952  2449.
    #>  2 Africa    Algeria gdpPercap 1957  3014.
    #>  3 Africa    Algeria gdpPercap 1962  2551.
    #>  4 Africa    Algeria gdpPercap 1967  3247.
    #>  5 Africa    Algeria gdpPercap 1972  4183.
    #>  6 Africa    Algeria gdpPercap 1977  4910.
    #>  7 Africa    Algeria gdpPercap 1982  5745.
    #>  8 Africa    Algeria gdpPercap 1987  5681.
    #>  9 Africa    Algeria gdpPercap 1992  5023.
    #> 10 Africa    Algeria gdpPercap 1997  4797.
    #> # … with 5,102 more rows
…
  - Use `unite()` to unite the columns `metric` and `year` as “metric”.
  - Use `pivot_wider()` to take the `names_from` the column `metric` and
    create new columns, taking `values_from` the column `value`.

<!-- end list -->

``` r
tidy %>% 
  _____("metric", ______, year) %>% 
  ___________(names_from = ______, values_from = _____)
```

## `unite()` and `pivot_wider()`: Result

    #> # A tibble: 142 x 38
    #>    continent country gdpPercap_1952 gdpPercap_1957 gdpPercap_1962 gdpPercap_1967
    #>    <chr>     <chr>            <dbl>          <dbl>          <dbl>          <dbl>
    #>  1 Africa    Algeria          2449.          3014.          2551.          3247.
    #>  2 Africa    Angola           3521.          3828.          4269.          5523.
    #>  3 Africa    Benin            1063.           960.           949.          1036.
    #>  4 Africa    Botswa…           851.           918.           984.          1215.
    #>  5 Africa    Burkin…           543.           617.           723.           795.
    #>  6 Africa    Burundi           339.           380.           355.           413.
    #>  7 Africa    Camero…          1173.          1313.          1400.          1508.
    #>  8 Africa    Centra…          1071.          1191.          1193.          1136.
    #>  9 Africa    Chad             1179.          1308.          1390.          1197.
    #> 10 Africa    Comoros          1103.          1211.          1407.          1876.
    #> # … with 132 more rows, and 32 more variables: gdpPercap_1972 <dbl>,
    #> #   gdpPercap_1977 <dbl>, gdpPercap_1982 <dbl>, gdpPercap_1987 <dbl>,
    #> #   gdpPercap_1992 <dbl>, gdpPercap_1997 <dbl>, gdpPercap_2002 <dbl>,
    #> #   gdpPercap_2007 <dbl>, lifeExp_1952 <dbl>, lifeExp_1957 <dbl>,
    #> #   lifeExp_1962 <dbl>, lifeExp_1967 <dbl>, lifeExp_1972 <dbl>,
    #> #   lifeExp_1977 <dbl>, lifeExp_1982 <dbl>, lifeExp_1987 <dbl>,
    #> #   lifeExp_1992 <dbl>, lifeExp_1997 <dbl>, lifeExp_2002 <dbl>,
    #> #   lifeExp_2007 <dbl>, pop_1952 <dbl>, pop_1957 <dbl>, pop_1962 <dbl>,
    #> #   pop_1967 <dbl>, pop_1972 <dbl>, pop_1977 <dbl>, pop_1982 <dbl>,
…
